{
  "label": "Weapons (Branded)",
  "mapping": {
    "dvTable": "system.dvTable"
  },
  "entries": {
    "Avenger": {
      "name": "Avenger",
      "description": "<p>A concealable, medium-sized pistol. +1 to Attack.</p>\n",
      "dvTable": "DV Pistola"
    },
    "Bearcat": {
      "name": "Bearcat",
      "description": "<p>\n  A collapsible bow branded with the Eagletech logo, reloaded as part of an\n  Attack action.\n</p>\n<p>+1 to Attack check.</p>\n",
      "dvTable": "DV Arcos e Balestras"
    },
    "Boomer Buster": {
      "name": "Boomer Buster",
      "description": "<p>A very heavy pistol. It can't be concealed. +1 to Attack.</p>\n",
      "dvTable": "DV Pistola"
    },
    "Bulldog": {
      "name": "Bulldog",
      "description": "<p>An all-purpose shotgun. +1 to Attack.</p>\n",
      "dvTable": "DV Espingarda (Cartuchos de Espingarda)"
    },
    "City Reaper": {
      "name": "City Reaper",
      "description": "<p>\n  A heavy SMG. Due to its size it can't be concealed. If you roll 1 on Attack\n  (Crit fail) the gun jams and requires using an action to clear.\n</p>\n",
      "dvTable": "DV SMG"
    },
    "Cityhunter": {
      "name": "Cityhunter",
      "description": "<p>A concealable, heavy pistol. +1 to Attack.</p>\n",
      "dvTable": "DV Pistola"
    },
    "Dragon": {
      "name": "Dragon",
      "description": "<p>A standard-issue assault rifle. +1 to Attack.</p>\n",
      "dvTable": "DV Rifle de Assalto"
    },
    "Home Defender": {
      "name": "Home Defender",
      "description": "<p>\n  An all-purpose shotgun. If you roll 1 on Attack (Crit fail) the gun jams and\n  requires using an action to clear.\n</p>\n",
      "dvTable": "DV Espingarda (Cartuchos de Espingarda)"
    },
    "Hotshot": {
      "name": "Hotshot",
      "description": "<p>\n  Bring out the big guns. This rocket launcher will do some damage. +1 to\n  Attack.\n</p>\n",
      "dvTable": "DV Lança-foguetes"
    },
    "Hunter": {
      "name": "Hunter",
      "description": "<p>\n  A poor quality crossbow branded with the GunMart logo, reloaded as part of an\n  Attack action.\n</p>\n<p>\n  If you roll 1 on Attack (Crit fail) the weapon jams and requires using an\n  action to clear.\n</p>\n",
      "dvTable": "DV Arcos e Balestras"
    },
    "Jungle Reaper": {
      "name": "Jungle Reaper",
      "description": "<p>\n  A standard-issue assault rifle. If you roll 1 on Attack (Crit fail) the gun\n  jams and requires using an action to clear.\n</p>\n",
      "dvTable": "DV Rifle de Assalto"
    },
    "Long Rifle": {
      "name": "Long Rifle",
      "description": "<p>\n  A long-distance sniper rifle, commonly used by nomads. Holds 4 bullets in a\n  magazine.\n</p>\n",
      "dvTable": "DV Fuzil de Precisão"
    },
    "Magnum": {
      "name": "Magnum",
      "description": "<p>\n  A concealable, heavy pistol. If you roll 1 on Attack (Crit fail) the gun jams\n  and requires using an action to clear.\n</p>\n",
      "dvTable": "DV Pistola"
    },
    "Mark III": {
      "name": "Mark III",
      "description": "<p>A concealable, heavy pistol.</p>\n",
      "dvTable": "DV Pistola"
    },
    "Minami 10": {
      "name": "Minami 10",
      "description": "<p>A concealable SMG. +1 to Attack.</p>\n",
      "dvTable": "DV SMG"
    },
    "Mini-Gat": {
      "name": "Mini-Gat",
      "description": "<p>A concealable SMG.</p>\n",
      "dvTable": "DV SMG"
    },
    "Mini-Grenade": {
      "name": "Mini-Grenade",
      "description": "<p>\n  A high-impact grenade launcher. You can use a variety of grenades with this.\n</p>\n",
      "dvTable": "DV Lançador de Granadas"
    },
    "P-35": {
      "name": "P-35",
      "description": "<p>A very heavy pistol. It can't be concealed.</p>\n",
      "dvTable": "DV Pistola"
    },
    "Rapid Assault": {
      "name": "Rapid Assault",
      "description": "<p>An all-purpose shotgun.</p>\n",
      "dvTable": "DV Espingarda (Cartuchos de Espingarda)"
    },
    "Ronin": {
      "name": "Ronin",
      "description": "<p>A standard-issue assault rifle.</p>\n",
      "dvTable": "DV Rifle de Assalto"
    },
    "Scorpion": {
      "name": "Scorpion",
      "description": "<p>\n  A sleek crossbow branded with the Eagletech logo, reloaded as part of an\n  Attack action.\n</p>\n<p>+1 to Attack check.</p>\n",
      "dvTable": "DV Arcos e Balestras"
    },
    "Sherwood": {
      "name": "Sherwood",
      "description": "<p>\n  A poor quality bow branded with the GunMart logo, reloaded as part of an\n  Attack action.\n</p>\n<p>\n  If you roll 1 on Attack (Crit fail) the weapon jams and requires using an\n  action to clear.\n</p>\n",
      "dvTable": "DV Arcos e Balestras"
    },
    "SMG-21": {
      "name": "SMG-21",
      "description": "<p>A heavy SMG. Due to its size it can't be concealed.</p>\n",
      "dvTable": "DV SMG"
    },
    "Snipe-Star": {
      "name": "Snipe-Star",
      "description": "<p>\n  A long-distance sniper rifle. Holds 4 bullets in a magazine. If you roll 1 on\n  Attack (Crit fail) the gun jams and requires using an action to clear.\n</p>\n",
      "dvTable": "DV Fuzil de Precisão"
    },
    "Streetmaster": {
      "name": "Streetmaster",
      "description": "<p>\n  A concealable, medium-sized pistol. If you roll 1 on Attack (Crit fail) the\n  gun jams and requires using an action to clear.\n</p>\n",
      "dvTable": "DV Pistola"
    },
    "Striker": {
      "name": "Striker",
      "description": "<p>\n  A crossbow branded with the Eagletech logo, reloaded as part of an Attack\n  action.\n</p>\n",
      "dvTable": "DV Arcos e Balestras"
    },
    "Super Chief": {
      "name": "Super Chief",
      "description": "<p>\n  A very heavy pistol. It can't be concealed. If you roll 1 on Attack (Crit\n  fail) the gun jams and requires using an action to clear.\n</p>\n",
      "dvTable": "DV Pistola"
    },
    "Tech-Assault III": {
      "name": "Tech-Assault III",
      "description": "<p>\n  A concealable SMG. If you roll 1 on Attack (Crit fail) the gun jams and\n  requires using an action to clear.\n</p>\n",
      "dvTable": "DV SMG"
    },
    "Tomcat": {
      "name": "Tomcat",
      "description": "<p>\n  A revitalized bow branded with the Eagletech logo, reloaded as part of an\n  Attack Action.\n</p>\n",
      "dvTable": "DV Arcos e Balestras"
    },
    "Type-18": {
      "name": "Type-18",
      "description": "<p>\n  A high-impact grenade launcher. You can use a variety of grenades with this.\n  +1 to Attack.\n</p>\n",
      "dvTable": "DV Lançador de Granadas"
    },
    "Type-G": {
      "name": "Type-G",
      "description": "<p>\n  A high-impact grenade launcher. You can use a variety of grenades with this.\n  If you roll 1 on Attack (Crit fail) the gun jams and requires using an action\n  to clear.\n</p>\n",
      "dvTable": "DV Lançador de Granadas"
    },
    "Type-R": {
      "name": "Type-R",
      "description": "<p>\n  Bring out the big guns. This rocket launcher will do some damage. If you roll\n  1 on Attack (Crit fail) the gun jams and requires using an action to clear.\n</p>\n",
      "dvTable": "DV Lança-foguetes"
    },
    "Urban": {
      "name": "Urban",
      "description": "<p>Bring out the big guns. This rocket launcher will do some damage.</p>\n",
      "dvTable": "DV Lança-foguetes"
    },
    "Viper": {
      "name": "Viper",
      "description": "<p>A heavy SMG. Due to its size it can't be concealed. +1 to Attack.</p>\n",
      "dvTable": "DV SMG"
    },
    "WSSA Sniper System": {
      "name": "WSSA Sniper System",
      "description": "<p>\n  A long-distance sniper rifle. Holds 4 bullets in a magazine. +1 to Attack.\n</p>\n",
      "dvTable": "DV Fuzil de Precisão"
    },
    "X-9mm": {
      "name": "X-9mm",
      "description": "<p>A concealable, medium-sized pistol.</p>\n",
      "dvTable": "DV Pistola"
    }
  }
}