{
  "label": "Améliorations",
  "mapping": {
    "dvTable": "system.tableSD"
  },
  "entries": {
    "Armored Chassis": {
      "name": "Châssis blindé",
      "description": "<p>\n  Can be applied to all vehicles. Armors the vehicle to SP13. Doesn't affect the\n  glass.\n</p>\n"
    },
    "AV-4 Engine Upgrade": {
      "name": "Amélioration de moteur d'AV-4",
      "description": "<p>\n  Can be applied to all land vehicles. Adds Aerodyne thrusters to the vehicle,\n  allowing flight. While flying the vehicle has a narrative speed of 200MPH /\n  322KPH, and a combat speed of 40. The vehicle must be piloted using the Pilot\n  Air Vehicle skill while mid-air.\n</p>\n"
    },
    "Backup Drive": {
      "name": "Disque dur de sauvegarde",
      "description": "<p>\n  Saves Non-Black IE programs when destroyed. These programs can be re-installed\n  by a Netrunner as a meat action.\n</p>\n"
    },
    "Bayonet": {
      "name": "Baïonnette",
      "description": "<p>\n  An old idea that still works just as good; lets you use your gun as a light\n  melee weapon. While attached, the weapon can't be concealed under clothing.\n</p>\n"
    },
    "Bulletproof Glass": {
      "name": "Verre pare-balles",
      "description": "<p>\n  Can be applied to all vehicles. All glass on the vehicle is now considered\n  cover with 15 HP. Can be taken a second time to upgrade to 30HP. All windows\n  take damage individually.\n</p>\n<p>Refer to the cover rules in CP:R, pg. 182.</p>\n"
    },
    "Combat Plow": {
      "name": "Pare-chocs de combat",
      "description": "<p>\n  Can be applied to all land and sea vehicles, except Bikes and Jetskies. When\n  you ram something with the front of your vehicle, your vehicle doesn't take\n  damage and nobody inside suffers from the Whiplash critical injury. You deal\n  2d6 additional ramming damage if your vehicle was boosted by NOS on the turn\n  you ram the object.\n</p>\n"
    },
    "Communications Center": {
      "name": "Centre de communications",
      "description": "<p>\n  Can be applied to all vehicles. Touchscreen console that functions as an\n  Agent, along with a storage unit containing 6\n  <strong>Radio Communicators</strong>, 6\n  <strong>Scrambler/Descramblers</strong>, a\n  <strong>Radio Scanner/Music Player</strong>, a\n  <strong>Homing tracer</strong> with 6 tracers, and an\n  <strong>Audio Recorder</strong>.\n</p>\n"
    },
    "Deployable Spike Strip": {
      "name": "Herse déployable",
      "description": "<p>\n  Can be applied to all groundcars. As an Action, the driver can deploy a spike\n  strip. While deployed, any closely trailing vehicles with tires must make a\n  DV17 Drive Land Vehicle Check. On a failure, their vehicle takes 4d6 damage as\n  if hitting a weak point. Replacement spike strips cost 10eb.\n</p>\n<p>\n  You may install this upgrade multiple times, each upgrade increases the amount\n  of spike strips that can be deployed before the system requires reloading, and\n  it cannot be reloaded while the vehicle is moving.\n</p>\n"
    },
    "DNA Lock": {
      "name": "Verrou biométrique",
      "description": "<p>\n  Uses biometrics to lock the cyberdeck. Requires\n  <strong>DV17 Electronics/Security Tech</strong> Check to crack.\n</p>\n"
    },
    "Drum Magazine (Assault Rifle)": {
      "name": "Chargeur à cylindre (Fusil d'assaut)",
      "description": "<p>Increases magazine size to a massive 45 bullets.</p>\n"
    },
    "Drum Magazine (Grenade Launcher)": {
      "name": "Chargeur à cylindre (Lance-grenades)",
      "description": "<p>Increases magazine size to a massive 6 grenades.</p>\n"
    },
    "Drum Magazine (Heavy Pistol)": {
      "name": "Chargeur à cylindre (Pistolet lourd)",
      "description": "<p>Increases magazine size to a massive 28 bullets.</p>\n"
    },
    "Drum Magazine (Heavy SMG)": {
      "name": "Chargeur à cylindre (Pistolet-mitrailleur lourd)",
      "description": "<p>Increases magazine size to a massive 60 bullets.</p>\n"
    },
    "Drum Magazine (Medium Pistol)": {
      "name": "Chargeur à cylindre (Pistolet moyen)",
      "description": "<p>Increases magazine size to a massive 36 bullets.</p>\n"
    },
    "Drum Magazine (Rocket Launcher)": {
      "name": "Chargeur à cylindre (Lance-roquettes)",
      "description": "<p>Increases magazine size to a massive 3 rockets. That's a lot of boom.</p>\n"
    },
    "Drum Magazine (Shotgun)": {
      "name": "Chargeur à cylindre (Fusil à pompe)",
      "description": "<p>Increases magazine size to a massive 16 rounds.</p>\n"
    },
    "Drum Magazine (SMG)": {
      "name": "Chargeur à cylindre (Pistolet-mitrailleur)",
      "description": "<p>Increases magazine size to a massive 50 bullets.</p>\n"
    },
    "Drum Magazine (Sniper Rifle)": {
      "name": "Chargeur à cylindre (Fusil de précision)",
      "description": "<p>Increases magazine size to a massive 12 bullets.</p>\n"
    },
    "Drum Magazine (Very Heavy Pistol)": {
      "name": "Chargeur à cylindre (Pistolet très lourd)",
      "description": "<p>Increases magazine size to a massive 28 bullets.</p>\n"
    },
    "Enhanced Interface Plug Integration": {
      "name": "Intégration améliorée des ports d'interface neurale",
      "description": "<p>\n  Can be applied to all bikes. While using Interface Plugs to drive this\n  vehicle, if you have a REF 8 or higher and you, a passenger, or your bike are\n  the target of an attack, you can attempt to dodge as you would on foot. If you\n  dodge for a passenger, that becomes their defence.\n</p>\n"
    },
    "Extended Magazine (Assault Rifle)": {
      "name": "Extension de chargeur (Fusil d'assaut)",
      "description": "<p>Increases magazine size to a hefty 35 bullets.</p>\n"
    },
    "Extended Magazine (Grenade Launcher)": {
      "name": "Extension de chargeur (Lance-grenades)",
      "description": "<p>Increases magazine size to a hefty 4 grenades.</p>\n"
    },
    "Extended Magazine (Heavy Pistol)": {
      "name": "Extension de chargeur (Pistolet lourd)",
      "description": "<p>Increases magazine size to a hefty 14 bullets.</p>\n"
    },
    "Extended Magazine (Heavy SMG)": {
      "name": "Extension de chargeur (Pistolet-mitrailleur lourd)",
      "description": "<p>Increases magazine size to a hefty 50 bullets.</p>\n"
    },
    "Extended Magazine (Medium Pistol)": {
      "name": "Extension de chargeur (Pistolet moyen)",
      "description": "<p>Increases magazine size to a hefty 18 bullets.</p>\n"
    },
    "Extended Magazine (Rocket Launcher)": {
      "name": "Extension de chargeur (Lance-roquettes)",
      "description": "<p>Increases magazine size to a hefty 2 rockets.</p>\n"
    },
    "Extended Magazine (Shotgun)": {
      "name": "Extension de chargeur (Fusil à pompe)",
      "description": "<p>Increases magazine size to a hefty 8 rounds.</p>\n"
    },
    "Extended Magazine (SMG)": {
      "name": "Extension de chargeur (Pistolet-mitrailleur)",
      "description": "<p>Increases magazine size to a hefty 40 bullets.</p>\n"
    },
    "Extended Magazine (Sniper Rifle)": {
      "name": "Extension de chargeur (Fusil de précision)",
      "description": "<p>Increases magazine size to a hefty 8 bullets.</p>\n"
    },
    "Extended Magazine (Very Heavy Pistol)": {
      "name": "Extension de chargeur (Pistolet très lourd)",
      "description": "<p>Increases magazine size to a hefty 14 bullets.</p>\n"
    },
    "Grenade Launcher Underbarrel": {
      "name": "Lance-grenades sous canon",
      "description": "<p>\n  Functions like a standard grenade launcher, but with a magazine size of 1.\n  Requires 2 hands to use, and takes up 2 attachment slots. While attached, the\n  weapon can't be concealed under clothing.\n</p>\n<p>\n  Note that the weapon inherits any modifiers from the gun it is attached to,\n  such as other attachments and quality.\n</p>\n",
      "dvTable": "SD Lance-grenades"
    },
    "Hardened Circuitry": {
      "name": "Circuits renforcés",
      "description": "<p>Cyberdeck cannot be disabled or destroyed by EMP effects.</p>\n"
    },
    "Heavy Chassis": {
      "name": "Châssis lourd",
      "description": "<p>\n  Can be applied to all vehicles except Bikes, Jetskis and Gyrocopters. Adds 20\n  SDP to the vehicle. This doesn't affect the glass, and vehicle can now tow up\n  to 10 tons.\n</p>\n"
    },
    "Housing Capacity": {
      "name": "Partie habitable",
      "description": "<p>\n  Can be applied to Aerozep, AV-4, Cabin Cruiser, Groundcars and Yacht. When\n  installed onto a Groundcar or AV-4, it adds a sleeping area with 1 bed, a\n  toilet, a shower, and a small kitchen to the vehicle. When installed into a\n  Cabin Cruiser, Yacht, or Aerozep, it adds one room to the vehicle.\n</p>\n<p>\n  <strong\n    >Requires a Heavy Chassis on a Compact Groundcar and High Performance\n    Groundcar</strong\n  >.\n</p>\n"
    },
    "Hover Upgrade": {
      "name": "Amélioration d'aéroglisseur",
      "description": "<p>\n  Can be applied to all land vehicles. Adds fans onto the vehicle that allow it\n  to traverse water at a narrative speed of 15 MPH/ 24KPH while hovering, and a\n  combat speed of 10.\n</p>\n"
    },
    "Infrared Nightvision Scope": {
      "name": "Lunette infrarouge de vision nocturne",
      "description": "<p>Reduces penalties against targets in darkness, smoke/fog to 0.</p>\n"
    },
    "Insulated Wiring": {
      "name": "Câblage isolé",
      "description": "<p>Cyberdeck and user clothing cannot catch fire.</p>\n"
    },
    "KRASH Barrier": {
      "name": "Barrière anti-KRASH",
      "description": "<p>\n  Cyberdeck is immune to effects that force the Netrunner to Jack Out (safely or\n  unsafely).\n</p>\n"
    },
    "NOS": {
      "name": "CAFAY",
      "description": "<p>\n  Can be applied to all vehicles. Adds a tank of nitrous oxide to the vehicle.\n  Allows you to use your Action to use an additional Move Action while driving.\n</p>\n<p>\n  You may install this upgrade multiple times, each upgrade adds an additional\n  tank and each tank may be used once per day.\n</p>\n"
    },
    "Onboard Flamethrower": {
      "name": "Crache-feu intégré",
      "description": "<p>\n  Can be applied to all vehicles. A <strong>Flamethrower</strong> that can be\n  mounted facing the front, side or back of the vehicle. The driver may fire it\n  using an Action. It cannot be reloaded while driving, and cannot accept weapon\n  attachments.\n</p>\n<p>You may install this upgrade multiple times.</p>\n"
    },
    "Onboard Machine Gun": {
      "name": "Mitrailleuse intégrée",
      "description": "<p>\n  Can be applied to all vehicles. An <strong>Assault Rifle</strong> with a 30\n  round capacity and only capable of Autofire, that can be mounted facing the\n  front of the vehicle. The driver may fire it using an Action, cannot be\n  reloaded while driving and cannot accept weapon attachments.\n</p>\n<p>You may install this upgrade multiple times.</p>\n"
    },
    "Onboard Melee Weapon": {
      "name": "Arme de mêlée intégrée",
      "description": "<p>\n  Can be applied to all land and sea vehicles. A\n  <strong>Very Heavy Melee Weapon</strong> that can be mounted facing the front,\n  side or back of the vehicle. The driver may attack with it using an Action.\n  The weapon cannot be removed.\n</p>\n<p>You may install this upgrade multiple times.</p>\n"
    },
    "Onboard Rocket Pod": {
      "name": "Lance-roquettes intégré",
      "description": "<p>\n  Can be applied to all vehicles except Bikes, Jetskis and Gyrocopters. A\n  <strong>Rocket Launcher</strong> with a drum of three rockets, that can be\n  mounted facing the front of the vehicle. The driver may fire it using an\n  Action. It cannot be reloaded while driving, and cannot accept weapon\n  attachments.\n</p>\n<p>\n  You may install this upgrade multiple times.\n  <strong>Requires Heavy Chassis</strong>.\n</p>\n"
    },
    "Range Upgrade": {
      "name": "Extension de portée",
      "description": "<p>\n  Cyberdeck can connect to access points from up to 8m/yds away (instead of\n  6m/yds).\n</p>\n"
    },
    "Seating Upgrade": {
      "name": "Amélioration de places assises",
      "description": "<p>\n  Can be applied to all vehicles. Adds two seats to the vehicle. These can be\n  installed as an external sidecar, they may also be installed as ejector seats\n  with removable parachutes.\n</p>\n<p>\n  Can be taken multiple times with the exception of Bikes, Jetskis and\n  Gyrocopters.\n</p>\n"
    },
    "Security Upgrade": {
      "name": "Amélioration de sécurité",
      "description": "<p>\n  Can be applied to all vehicles. Adds DNA Locks to the vehicle requring the\n  correct biometrics or a DV 17 Electronics/Security Tech check to unlock.\n  Failure to unlock the vehicle takes damage as if hit with a Stun Baton.\n</p>\n<p>\n  In addition, while remaining still the vehicle is cloaked and requires a\n  <strong>DV17 Perception</strong> check to spot. The vehicle must remain\n  stationary for a minute before this activates.\n</p>\n"
    },
    "Shotgun Underbarrel": {
      "name": "Double canon à pompe",
      "description": "<p>\n  Functions like a standard shotgun, but with a magazine size of 2. Requires 2\n  hands to use, and takes up 2 attachment slots. While attached, the weapon\n  can't be concealed under clothing.\n</p>\n<p>\n  Note that the weapon inherits any modifiers from the gun it is attached to,\n  such as other attachments and quality.\n</p>\n",
      "dvTable": "SD Fusil à pompe (Slug)"
    },
    "Smartgun Link": {
      "name": "Liaison smartgun",
      "description": "<p>Turns weapon into a \"Smartgun\".</p>\n"
    },
    "Smuggling Upgrade": {
      "name": "Amélioration de contrebande",
      "description": "<p>\n  Can be applied to all vehicles. Adds two <strong>Hidden Holsters</strong> to\n  the vehicle, and a large hidden compartment for smuggling purposes. These can\n  be discovered with a <strong>DV17 Conceal/Reveal Object</strong> check.\n</p>\n<p>\n  Can be taken multiple times with the exception of Bikes, Jetskis and\n  Gyrocopters.\n</p>\n"
    },
    "Sniping Scope": {
      "name": "Lunette de précision",
      "description": "<p>\n  Allows you to see detail up to 800m/yds. +1 to Single Shot/Aimed Shots for\n  targets greater than 50m/yds.\n</p>\n"
    },
    "Vehicle Heavy Weapon Mount": {
      "name": "Support d'arme lourde pour véhicule",
      "description": "<p>\n  Can be applied to all vehicles except Bikes, Jetskis and Gyrocopters. One of\n  the vehicles seats becomes a swivel mount for any two-handed ranged weapon. A\n  passenger may fire the weapon using an Action. The passenger can reload the\n  weapon. The weapon can be removed or reinstalled using an Action.\n</p>\n<p>\n  The first time this upgrade is taken, included is a\n  <strong>Tsunami Arms Helix</strong>,\n  <strong>Rhinemetall EMG-86 Railgun</strong>, or\n  <strong>Militech \"Cowboy\" U-56 Grenade Launcher</strong>. If the vehicle has\n  the Bulletproof Glass upgrade, the gunner is protected by the same glass.\n</p>\n<p>\n  You may install this upgrade multiple times if the vehicle has the Housing\n  Capacity upgrade. <strong>Requires Heavy Chassis</strong>.\n</p>\n"
    }
  }
}